(kicad_sch (version 20211123) (generator eeschema)

  (uuid e63e39d7-6ac0-4ffd-8aa3-1841a4541b55)

  (paper "A4")

  (lib_symbols
    (symbol "ACS712_breakout_1" (in_bom yes) (on_board yes)
      (property "Reference" "U" (id 0) (at 7.62 16.51 0)
        (effects (font (size 1.27 1.27)))
      )
      (property "Value" "ACS712_breakout_1" (id 1) (at 8.89 13.97 0)
        (effects (font (size 1.27 1.27)))
      )
      (property "Footprint" "libs_olle:ACS712_breakout" (id 2) (at 8.89 -1.27 0)
        (effects (font (size 1.27 1.27)) hide)
      )
      (property "Datasheet" "" (id 3) (at 0 0 0)
        (effects (font (size 1.27 1.27)) hide)
      )
      (symbol "ACS712_breakout_1_0_1"
        (rectangle (start 0 12.7) (end 19.05 0)
          (stroke (width 0) (type default) (color 0 0 0 0))
          (fill (type background))
        )
      )
      (symbol "ACS712_breakout_1_1_1"
        (pin input line (at -2.54 10.16 0) (length 2.54)
          (name "IN" (effects (font (size 1.27 1.27))))
          (number "1" (effects (font (size 1.27 1.27))))
        )
        (pin output line (at -2.54 6.35 0) (length 2.54)
          (name "OUT" (effects (font (size 1.27 1.27))))
          (number "2" (effects (font (size 1.27 1.27))))
        )
        (pin input line (at 21.59 10.16 180) (length 2.54)
          (name "VCC" (effects (font (size 1.27 1.27))))
          (number "3" (effects (font (size 1.27 1.27))))
        )
        (pin output line (at 21.59 6.35 180) (length 2.54)
          (name "OUT" (effects (font (size 1.27 1.27))))
          (number "4" (effects (font (size 1.27 1.27))))
        )
        (pin input line (at 21.59 2.54 180) (length 2.54)
          (name "GND" (effects (font (size 1.27 1.27))))
          (number "5" (effects (font (size 1.27 1.27))))
        )
      )
    )
    (symbol "Connector:Conn_01x02_Female" (pin_names (offset 1.016) hide) (in_bom yes) (on_board yes)
      (property "Reference" "J" (id 0) (at 0 2.54 0)
        (effects (font (size 1.27 1.27)))
      )
      (property "Value" "Conn_01x02_Female" (id 1) (at 0 -5.08 0)
        (effects (font (size 1.27 1.27)))
      )
      (property "Footprint" "" (id 2) (at 0 0 0)
        (effects (font (size 1.27 1.27)) hide)
      )
      (property "Datasheet" "~" (id 3) (at 0 0 0)
        (effects (font (size 1.27 1.27)) hide)
      )
      (property "ki_keywords" "connector" (id 4) (at 0 0 0)
        (effects (font (size 1.27 1.27)) hide)
      )
      (property "ki_description" "Generic connector, single row, 01x02, script generated (kicad-library-utils/schlib/autogen/connector/)" (id 5) (at 0 0 0)
        (effects (font (size 1.27 1.27)) hide)
      )
      (property "ki_fp_filters" "Connector*:*_1x??_*" (id 6) (at 0 0 0)
        (effects (font (size 1.27 1.27)) hide)
      )
      (symbol "Conn_01x02_Female_1_1"
        (arc (start 0 -2.032) (mid -0.508 -2.54) (end 0 -3.048)
          (stroke (width 0.1524) (type default) (color 0 0 0 0))
          (fill (type none))
        )
        (polyline
          (pts
            (xy -1.27 -2.54)
            (xy -0.508 -2.54)
          )
          (stroke (width 0.1524) (type default) (color 0 0 0 0))
          (fill (type none))
        )
        (polyline
          (pts
            (xy -1.27 0)
            (xy -0.508 0)
          )
          (stroke (width 0.1524) (type default) (color 0 0 0 0))
          (fill (type none))
        )
        (arc (start 0 0.508) (mid -0.508 0) (end 0 -0.508)
          (stroke (width 0.1524) (type default) (color 0 0 0 0))
          (fill (type none))
        )
        (pin passive line (at -5.08 0 0) (length 3.81)
          (name "Pin_1" (effects (font (size 1.27 1.27))))
          (number "1" (effects (font (size 1.27 1.27))))
        )
        (pin passive line (at -5.08 -2.54 0) (length 3.81)
          (name "Pin_2" (effects (font (size 1.27 1.27))))
          (number "2" (effects (font (size 1.27 1.27))))
        )
      )
    )
    (symbol "Connector:Conn_01x02_Male" (pin_names (offset 1.016) hide) (in_bom yes) (on_board yes)
      (property "Reference" "J" (id 0) (at 0 2.54 0)
        (effects (font (size 1.27 1.27)))
      )
      (property "Value" "Conn_01x02_Male" (id 1) (at 0 -5.08 0)
        (effects (font (size 1.27 1.27)))
      )
      (property "Footprint" "" (id 2) (at 0 0 0)
        (effects (font (size 1.27 1.27)) hide)
      )
      (property "Datasheet" "~" (id 3) (at 0 0 0)
        (effects (font (size 1.27 1.27)) hide)
      )
      (property "ki_keywords" "connector" (id 4) (at 0 0 0)
        (effects (font (size 1.27 1.27)) hide)
      )
      (property "ki_description" "Generic connector, single row, 01x02, script generated (kicad-library-utils/schlib/autogen/connector/)" (id 5) (at 0 0 0)
        (effects (font (size 1.27 1.27)) hide)
      )
      (property "ki_fp_filters" "Connector*:*_1x??_*" (id 6) (at 0 0 0)
        (effects (font (size 1.27 1.27)) hide)
      )
      (symbol "Conn_01x02_Male_1_1"
        (polyline
          (pts
            (xy 1.27 -2.54)
            (xy 0.8636 -2.54)
          )
          (stroke (width 0.1524) (type default) (color 0 0 0 0))
          (fill (type none))
        )
        (polyline
          (pts
            (xy 1.27 0)
            (xy 0.8636 0)
          )
          (stroke (width 0.1524) (type default) (color 0 0 0 0))
          (fill (type none))
        )
        (rectangle (start 0.8636 -2.413) (end 0 -2.667)
          (stroke (width 0.1524) (type default) (color 0 0 0 0))
          (fill (type outline))
        )
        (rectangle (start 0.8636 0.127) (end 0 -0.127)
          (stroke (width 0.1524) (type default) (color 0 0 0 0))
          (fill (type outline))
        )
        (pin passive line (at 5.08 0 180) (length 3.81)
          (name "Pin_1" (effects (font (size 1.27 1.27))))
          (number "1" (effects (font (size 1.27 1.27))))
        )
        (pin passive line (at 5.08 -2.54 180) (length 3.81)
          (name "Pin_2" (effects (font (size 1.27 1.27))))
          (number "2" (effects (font (size 1.27 1.27))))
        )
      )
    )
    (symbol "Connector:Conn_01x03_Female" (pin_names (offset 1.016) hide) (in_bom yes) (on_board yes)
      (property "Reference" "J" (id 0) (at 0 5.08 0)
        (effects (font (size 1.27 1.27)))
      )
      (property "Value" "Conn_01x03_Female" (id 1) (at 0 -5.08 0)
        (effects (font (size 1.27 1.27)))
      )
      (property "Footprint" "" (id 2) (at 0 0 0)
        (effects (font (size 1.27 1.27)) hide)
      )
      (property "Datasheet" "~" (id 3) (at 0 0 0)
        (effects (font (size 1.27 1.27)) hide)
      )
      (property "ki_keywords" "connector" (id 4) (at 0 0 0)
        (effects (font (size 1.27 1.27)) hide)
      )
      (property "ki_description" "Generic connector, single row, 01x03, script generated (kicad-library-utils/schlib/autogen/connector/)" (id 5) (at 0 0 0)
        (effects (font (size 1.27 1.27)) hide)
      )
      (property "ki_fp_filters" "Connector*:*_1x??_*" (id 6) (at 0 0 0)
        (effects (font (size 1.27 1.27)) hide)
      )
      (symbol "Conn_01x03_Female_1_1"
        (arc (start 0 -2.032) (mid -0.508 -2.54) (end 0 -3.048)
          (stroke (width 0.1524) (type default) (color 0 0 0 0))
          (fill (type none))
        )
        (polyline
          (pts
            (xy -1.27 -2.54)
            (xy -0.508 -2.54)
          )
          (stroke (width 0.1524) (type default) (color 0 0 0 0))
          (fill (type none))
        )
        (polyline
          (pts
            (xy -1.27 0)
            (xy -0.508 0)
          )
          (stroke (width 0.1524) (type default) (color 0 0 0 0))
          (fill (type none))
        )
        (polyline
          (pts
            (xy -1.27 2.54)
            (xy -0.508 2.54)
          )
          (stroke (width 0.1524) (type default) (color 0 0 0 0))
          (fill (type none))
        )
        (arc (start 0 0.508) (mid -0.508 0) (end 0 -0.508)
          (stroke (width 0.1524) (type default) (color 0 0 0 0))
          (fill (type none))
        )
        (arc (start 0 3.048) (mid -0.508 2.54) (end 0 2.032)
          (stroke (width 0.1524) (type default) (color 0 0 0 0))
          (fill (type none))
        )
        (pin passive line (at -5.08 2.54 0) (length 3.81)
          (name "Pin_1" (effects (font (size 1.27 1.27))))
          (number "1" (effects (font (size 1.27 1.27))))
        )
        (pin passive line (at -5.08 0 0) (length 3.81)
          (name "Pin_2" (effects (font (size 1.27 1.27))))
          (number "2" (effects (font (size 1.27 1.27))))
        )
        (pin passive line (at -5.08 -2.54 0) (length 3.81)
          (name "Pin_3" (effects (font (size 1.27 1.27))))
          (number "3" (effects (font (size 1.27 1.27))))
        )
      )
    )
    (symbol "Connector_Generic:Conn_01x04" (pin_names (offset 1.016) hide) (in_bom yes) (on_board yes)
      (property "Reference" "J" (id 0) (at 0 5.08 0)
        (effects (font (size 1.27 1.27)))
      )
      (property "Value" "Conn_01x04" (id 1) (at 0 -7.62 0)
        (effects (font (size 1.27 1.27)))
      )
      (property "Footprint" "" (id 2) (at 0 0 0)
        (effects (font (size 1.27 1.27)) hide)
      )
      (property "Datasheet" "~" (id 3) (at 0 0 0)
        (effects (font (size 1.27 1.27)) hide)
      )
      (property "ki_keywords" "connector" (id 4) (at 0 0 0)
        (effects (font (size 1.27 1.27)) hide)
      )
      (property "ki_description" "Generic connector, single row, 01x04, script generated (kicad-library-utils/schlib/autogen/connector/)" (id 5) (at 0 0 0)
        (effects (font (size 1.27 1.27)) hide)
      )
      (property "ki_fp_filters" "Connector*:*_1x??_*" (id 6) (at 0 0 0)
        (effects (font (size 1.27 1.27)) hide)
      )
      (symbol "Conn_01x04_1_1"
        (rectangle (start -1.27 -4.953) (end 0 -5.207)
          (stroke (width 0.1524) (type default) (color 0 0 0 0))
          (fill (type none))
        )
        (rectangle (start -1.27 -2.413) (end 0 -2.667)
          (stroke (width 0.1524) (type default) (color 0 0 0 0))
          (fill (type none))
        )
        (rectangle (start -1.27 0.127) (end 0 -0.127)
          (stroke (width 0.1524) (type default) (color 0 0 0 0))
          (fill (type none))
        )
        (rectangle (start -1.27 2.667) (end 0 2.413)
          (stroke (width 0.1524) (type default) (color 0 0 0 0))
          (fill (type none))
        )
        (rectangle (start -1.27 3.81) (end 1.27 -6.35)
          (stroke (width 0.254) (type default) (color 0 0 0 0))
          (fill (type background))
        )
        (pin passive line (at -5.08 2.54 0) (length 3.81)
          (name "Pin_1" (effects (font (size 1.27 1.27))))
          (number "1" (effects (font (size 1.27 1.27))))
        )
        (pin passive line (at -5.08 0 0) (length 3.81)
          (name "Pin_2" (effects (font (size 1.27 1.27))))
          (number "2" (effects (font (size 1.27 1.27))))
        )
        (pin passive line (at -5.08 -2.54 0) (length 3.81)
          (name "Pin_3" (effects (font (size 1.27 1.27))))
          (number "3" (effects (font (size 1.27 1.27))))
        )
        (pin passive line (at -5.08 -5.08 0) (length 3.81)
          (name "Pin_4" (effects (font (size 1.27 1.27))))
          (number "4" (effects (font (size 1.27 1.27))))
        )
      )
    )
    (symbol "Device:R" (pin_numbers hide) (pin_names (offset 0)) (in_bom yes) (on_board yes)
      (property "Reference" "R" (id 0) (at 2.032 0 90)
        (effects (font (size 1.27 1.27)))
      )
      (property "Value" "R" (id 1) (at 0 0 90)
        (effects (font (size 1.27 1.27)))
      )
      (property "Footprint" "" (id 2) (at -1.778 0 90)
        (effects (font (size 1.27 1.27)) hide)
      )
      (property "Datasheet" "~" (id 3) (at 0 0 0)
        (effects (font (size 1.27 1.27)) hide)
      )
      (property "ki_keywords" "R res resistor" (id 4) (at 0 0 0)
        (effects (font (size 1.27 1.27)) hide)
      )
      (property "ki_description" "Resistor" (id 5) (at 0 0 0)
        (effects (font (size 1.27 1.27)) hide)
      )
      (property "ki_fp_filters" "R_*" (id 6) (at 0 0 0)
        (effects (font (size 1.27 1.27)) hide)
      )
      (symbol "R_0_1"
        (rectangle (start -1.016 -2.54) (end 1.016 2.54)
          (stroke (width 0.254) (type default) (color 0 0 0 0))
          (fill (type none))
        )
      )
      (symbol "R_1_1"
        (pin passive line (at 0 3.81 270) (length 1.27)
          (name "~" (effects (font (size 1.27 1.27))))
          (number "1" (effects (font (size 1.27 1.27))))
        )
        (pin passive line (at 0 -3.81 90) (length 1.27)
          (name "~" (effects (font (size 1.27 1.27))))
          (number "2" (effects (font (size 1.27 1.27))))
        )
      )
    )
    (symbol "MCU_Module:Arduino_Nano_v3.x" (in_bom yes) (on_board yes)
      (property "Reference" "A" (id 0) (at -10.16 23.495 0)
        (effects (font (size 1.27 1.27)) (justify left bottom))
      )
      (property "Value" "Arduino_Nano_v3.x" (id 1) (at 5.08 -24.13 0)
        (effects (font (size 1.27 1.27)) (justify left top))
      )
      (property "Footprint" "Module:Arduino_Nano" (id 2) (at 0 0 0)
        (effects (font (size 1.27 1.27) italic) hide)
      )
      (property "Datasheet" "http://www.mouser.com/pdfdocs/Gravitech_Arduino_Nano3_0.pdf" (id 3) (at 0 0 0)
        (effects (font (size 1.27 1.27)) hide)
      )
      (property "ki_keywords" "Arduino nano microcontroller module USB" (id 4) (at 0 0 0)
        (effects (font (size 1.27 1.27)) hide)
      )
      (property "ki_description" "Arduino Nano v3.x" (id 5) (at 0 0 0)
        (effects (font (size 1.27 1.27)) hide)
      )
      (property "ki_fp_filters" "Arduino*Nano*" (id 6) (at 0 0 0)
        (effects (font (size 1.27 1.27)) hide)
      )
      (symbol "Arduino_Nano_v3.x_0_1"
        (rectangle (start -10.16 22.86) (end 10.16 -22.86)
          (stroke (width 0.254) (type default) (color 0 0 0 0))
          (fill (type background))
        )
      )
      (symbol "Arduino_Nano_v3.x_1_1"
        (pin bidirectional line (at -12.7 12.7 0) (length 2.54)
          (name "D1/TX" (effects (font (size 1.27 1.27))))
          (number "1" (effects (font (size 1.27 1.27))))
        )
        (pin bidirectional line (at -12.7 -2.54 0) (length 2.54)
          (name "D7" (effects (font (size 1.27 1.27))))
          (number "10" (effects (font (size 1.27 1.27))))
        )
        (pin bidirectional line (at -12.7 -5.08 0) (length 2.54)
          (name "D8" (effects (font (size 1.27 1.27))))
          (number "11" (effects (font (size 1.27 1.27))))
        )
        (pin bidirectional line (at -12.7 -7.62 0) (length 2.54)
          (name "D9" (effects (font (size 1.27 1.27))))
          (number "12" (effects (font (size 1.27 1.27))))
        )
        (pin bidirectional line (at -12.7 -10.16 0) (length 2.54)
          (name "D10" (effects (font (size 1.27 1.27))))
          (number "13" (effects (font (size 1.27 1.27))))
        )
        (pin bidirectional line (at -12.7 -12.7 0) (length 2.54)
          (name "D11" (effects (font (size 1.27 1.27))))
          (number "14" (effects (font (size 1.27 1.27))))
        )
        (pin bidirectional line (at -12.7 -15.24 0) (length 2.54)
          (name "D12" (effects (font (size 1.27 1.27))))
          (number "15" (effects (font (size 1.27 1.27))))
        )
        (pin bidirectional line (at -12.7 -17.78 0) (length 2.54)
          (name "D13" (effects (font (size 1.27 1.27))))
          (number "16" (effects (font (size 1.27 1.27))))
        )
        (pin power_out line (at 2.54 25.4 270) (length 2.54)
          (name "3V3" (effects (font (size 1.27 1.27))))
          (number "17" (effects (font (size 1.27 1.27))))
        )
        (pin input line (at 12.7 5.08 180) (length 2.54)
          (name "AREF" (effects (font (size 1.27 1.27))))
          (number "18" (effects (font (size 1.27 1.27))))
        )
        (pin bidirectional line (at 12.7 0 180) (length 2.54)
          (name "A0" (effects (font (size 1.27 1.27))))
          (number "19" (effects (font (size 1.27 1.27))))
        )
        (pin bidirectional line (at -12.7 15.24 0) (length 2.54)
          (name "D0/RX" (effects (font (size 1.27 1.27))))
          (number "2" (effects (font (size 1.27 1.27))))
        )
        (pin bidirectional line (at 12.7 -2.54 180) (length 2.54)
          (name "A1" (effects (font (size 1.27 1.27))))
          (number "20" (effects (font (size 1.27 1.27))))
        )
        (pin bidirectional line (at 12.7 -5.08 180) (length 2.54)
          (name "A2" (effects (font (size 1.27 1.27))))
          (number "21" (effects (font (size 1.27 1.27))))
        )
        (pin bidirectional line (at 12.7 -7.62 180) (length 2.54)
          (name "A3" (effects (font (size 1.27 1.27))))
          (number "22" (effects (font (size 1.27 1.27))))
        )
        (pin bidirectional line (at 12.7 -10.16 180) (length 2.54)
          (name "A4" (effects (font (size 1.27 1.27))))
          (number "23" (effects (font (size 1.27 1.27))))
        )
        (pin bidirectional line (at 12.7 -12.7 180) (length 2.54)
          (name "A5" (effects (font (size 1.27 1.27))))
          (number "24" (effects (font (size 1.27 1.27))))
        )
        (pin bidirectional line (at 12.7 -15.24 180) (length 2.54)
          (name "A6" (effects (font (size 1.27 1.27))))
          (number "25" (effects (font (size 1.27 1.27))))
        )
        (pin bidirectional line (at 12.7 -17.78 180) (length 2.54)
          (name "A7" (effects (font (size 1.27 1.27))))
          (number "26" (effects (font (size 1.27 1.27))))
        )
        (pin power_out line (at 5.08 25.4 270) (length 2.54)
          (name "+5V" (effects (font (size 1.27 1.27))))
          (number "27" (effects (font (size 1.27 1.27))))
        )
        (pin input line (at 12.7 15.24 180) (length 2.54)
          (name "~{RESET}" (effects (font (size 1.27 1.27))))
          (number "28" (effects (font (size 1.27 1.27))))
        )
        (pin power_in line (at 2.54 -25.4 90) (length 2.54)
          (name "GND" (effects (font (size 1.27 1.27))))
          (number "29" (effects (font (size 1.27 1.27))))
        )
        (pin input line (at 12.7 12.7 180) (length 2.54)
          (name "~{RESET}" (effects (font (size 1.27 1.27))))
          (number "3" (effects (font (size 1.27 1.27))))
        )
        (pin power_in line (at -2.54 25.4 270) (length 2.54)
          (name "VIN" (effects (font (size 1.27 1.27))))
          (number "30" (effects (font (size 1.27 1.27))))
        )
        (pin power_in line (at 0 -25.4 90) (length 2.54)
          (name "GND" (effects (font (size 1.27 1.27))))
          (number "4" (effects (font (size 1.27 1.27))))
        )
        (pin bidirectional line (at -12.7 10.16 0) (length 2.54)
          (name "D2" (effects (font (size 1.27 1.27))))
          (number "5" (effects (font (size 1.27 1.27))))
        )
        (pin bidirectional line (at -12.7 7.62 0) (length 2.54)
          (name "D3" (effects (font (size 1.27 1.27))))
          (number "6" (effects (font (size 1.27 1.27))))
        )
        (pin bidirectional line (at -12.7 5.08 0) (length 2.54)
          (name "D4" (effects (font (size 1.27 1.27))))
          (number "7" (effects (font (size 1.27 1.27))))
        )
        (pin bidirectional line (at -12.7 2.54 0) (length 2.54)
          (name "D5" (effects (font (size 1.27 1.27))))
          (number "8" (effects (font (size 1.27 1.27))))
        )
        (pin bidirectional line (at -12.7 0 0) (length 2.54)
          (name "D6" (effects (font (size 1.27 1.27))))
          (number "9" (effects (font (size 1.27 1.27))))
        )
      )
    )
    (symbol "libs_olle:ACS712_breakout" (in_bom yes) (on_board yes)
      (property "Reference" "U" (id 0) (at 7.62 16.51 0)
        (effects (font (size 1.27 1.27)))
      )
      (property "Value" "ACS712_breakout" (id 1) (at 8.89 13.97 0)
        (effects (font (size 1.27 1.27)))
      )
      (property "Footprint" "libs_olle:ACS712_breakout" (id 2) (at 8.89 -1.27 0)
        (effects (font (size 1.27 1.27)) hide)
      )
      (property "Datasheet" "" (id 3) (at 0 0 0)
        (effects (font (size 1.27 1.27)) hide)
      )
      (symbol "ACS712_breakout_0_1"
        (rectangle (start 0 12.7) (end 19.05 0)
          (stroke (width 0) (type default) (color 0 0 0 0))
          (fill (type background))
        )
      )
      (symbol "ACS712_breakout_1_1"
        (pin input line (at -2.54 10.16 0) (length 2.54)
          (name "IN" (effects (font (size 1.27 1.27))))
          (number "1" (effects (font (size 1.27 1.27))))
        )
        (pin output line (at -2.54 6.35 0) (length 2.54)
          (name "OUT" (effects (font (size 1.27 1.27))))
          (number "2" (effects (font (size 1.27 1.27))))
        )
        (pin input line (at 21.59 10.16 180) (length 2.54)
          (name "VCC" (effects (font (size 1.27 1.27))))
          (number "3" (effects (font (size 1.27 1.27))))
        )
        (pin output line (at 21.59 6.35 180) (length 2.54)
          (name "OUT" (effects (font (size 1.27 1.27))))
          (number "4" (effects (font (size 1.27 1.27))))
        )
        (pin input line (at 21.59 2.54 180) (length 2.54)
          (name "GND" (effects (font (size 1.27 1.27))))
          (number "5" (effects (font (size 1.27 1.27))))
        )
      )
    )
    (symbol "libs_olle:drv8871_breakout" (in_bom yes) (on_board yes)
      (property "Reference" "U" (id 0) (at 10.16 21.59 0)
        (effects (font (size 1.27 1.27)))
      )
      (property "Value" "drv8871_breakout" (id 1) (at 11.43 19.05 0)
        (effects (font (size 1.27 1.27)))
      )
      (property "Footprint" "libs_olle:drv8871_breakout" (id 2) (at 8.89 -1.27 0)
        (effects (font (size 1.27 1.27)) hide)
      )
      (property "Datasheet" "" (id 3) (at 0 0 0)
        (effects (font (size 1.27 1.27)) hide)
      )
      (symbol "drv8871_breakout_0_1"
        (rectangle (start 0 17.78) (end 19.05 0)
          (stroke (width 0) (type default) (color 0 0 0 0))
          (fill (type background))
        )
      )
      (symbol "drv8871_breakout_1_1"
        (pin input line (at -2.54 15.24 0) (length 2.54)
          (name "IN1" (effects (font (size 1.27 1.27))))
          (number "1" (effects (font (size 1.27 1.27))))
        )
        (pin input line (at -2.54 11.43 0) (length 2.54)
          (name "IN2" (effects (font (size 1.27 1.27))))
          (number "2" (effects (font (size 1.27 1.27))))
        )
        (pin bidirectional line (at 21.59 15.24 180) (length 2.54)
          (name "MOTOR1" (effects (font (size 1.27 1.27))))
          (number "5" (effects (font (size 1.27 1.27))))
        )
        (pin bidirectional line (at 21.59 11.43 180) (length 2.54)
          (name "MOTOR2" (effects (font (size 1.27 1.27))))
          (number "6" (effects (font (size 1.27 1.27))))
        )
        (pin input line (at 21.59 7.62 180) (length 2.54)
          (name "VM" (effects (font (size 1.27 1.27))))
          (number "7" (effects (font (size 1.27 1.27))))
        )
        (pin input line (at 21.59 3.81 180) (length 2.54)
          (name "GND" (effects (font (size 1.27 1.27))))
          (number "8" (effects (font (size 1.27 1.27))))
        )
      )
    )
    (symbol "libs_olle:stepdown_generic" (in_bom yes) (on_board yes)
      (property "Reference" "U" (id 0) (at 10.16 12.7 0)
        (effects (font (size 1.27 1.27)))
      )
      (property "Value" "stepdown_generic" (id 1) (at 11.43 10.16 0)
        (effects (font (size 1.27 1.27)))
      )
      (property "Footprint" "libs_olle:stepdown_generic" (id 2) (at 10.16 -1.27 0)
        (effects (font (size 1.27 1.27)) hide)
      )
      (property "Datasheet" "" (id 3) (at 0 0 0)
        (effects (font (size 1.27 1.27)) hide)
      )
      (symbol "stepdown_generic_0_1"
        (rectangle (start 0 8.89) (end 22.86 0)
          (stroke (width 0) (type default) (color 0 0 0 0))
          (fill (type background))
        )
      )
      (symbol "stepdown_generic_1_1"
        (pin input line (at -2.54 6.35 0) (length 2.54)
          (name "IN" (effects (font (size 1.27 1.27))))
          (number "1" (effects (font (size 1.27 1.27))))
        )
        (pin input line (at -2.54 2.54 0) (length 2.54)
          (name "GND_IN" (effects (font (size 1.27 1.27))))
          (number "2" (effects (font (size 1.27 1.27))))
        )
        (pin passive line (at 25.4 6.35 180) (length 2.54)
          (name "OUT" (effects (font (size 1.27 1.27))))
          (number "3" (effects (font (size 1.27 1.27))))
        )
        (pin power_out line (at 25.4 2.54 180) (length 2.54)
          (name "GND_OUT" (effects (font (size 1.27 1.27))))
          (number "4" (effects (font (size 1.27 1.27))))
        )
      )
    )
  )

  (junction (at 101.6 44.45) (diameter 0) (color 0 0 0 0)
    (uuid 0eb81828-c1f5-44bf-b29f-dd9cbb4ed0f2)
  )
  (junction (at 171.45 36.83) (diameter 0) (color 0 0 0 0)
    (uuid 2186208d-a9de-4fe4-b713-7d74fa20d574)
  )
  (junction (at 66.04 29.21) (diameter 0) (color 0 0 0 0)
    (uuid 3e0654b0-14ed-4c4a-96cd-bb4d740900be)
  )
  (junction (at 104.14 36.83) (diameter 0) (color 0 0 0 0)
    (uuid 590ddc2a-b6a5-40e6-9b3d-25a4fab98a2b)
  )
  (junction (at 173.99 44.45) (diameter 0) (color 0 0 0 0)
    (uuid 5ead50c2-ad06-4a5b-9908-84809f0201dc)
  )
  (junction (at 68.58 26.67) (diameter 0) (color 0 0 0 0)
    (uuid 6171f0b0-52d0-408d-a83d-0817a40891ba)
  )
  (junction (at 173.99 90.17) (diameter 0) (color 0 0 0 0)
    (uuid 819532b0-7f62-4a03-a2ff-591ff9251b90)
  )
  (junction (at 68.58 36.83) (diameter 0) (color 0 0 0 0)
    (uuid b8135360-96bd-4de9-86c5-fa172165db36)
  )
  (junction (at 171.45 96.52) (diameter 0) (color 0 0 0 0)
    (uuid bfe3f1c0-a41c-4a55-b5bc-5d76b7a1ea00)
  )
  (junction (at 151.13 44.45) (diameter 0) (color 0 0 0 0)
    (uuid c26290d8-edd6-40fc-adfc-76af36882c40)
  )
  (junction (at 209.55 96.52) (diameter 0) (color 0 0 0 0)
    (uuid c401e53f-fdb7-4d47-bcaf-c01fe0f7cfb8)
  )
  (junction (at 66.04 58.42) (diameter 0) (color 0 0 0 0)
    (uuid cd3efea5-6c9c-4bee-b4fb-2b07cb59226b)
  )
  (junction (at 153.67 44.45) (diameter 0) (color 0 0 0 0)
    (uuid d86b9d52-7fd9-4307-adcd-ef29f8da5dd3)
  )
  (junction (at 135.89 36.83) (diameter 0) (color 0 0 0 0)
    (uuid f5d8e826-05d3-419c-bbd2-baef7a463ae8)
  )

  (no_connect (at 140.97 67.31) (uuid 0af23d45-203f-4073-8629-622c94a48658))
  (no_connect (at 140.97 69.85) (uuid 0af23d45-203f-4073-8629-622c94a48658))
  (no_connect (at 140.97 72.39) (uuid 0af23d45-203f-4073-8629-622c94a48658))
  (no_connect (at 140.97 87.63) (uuid c9f43ff2-3ebb-4fa2-bcc7-1f38211b7196))
  (no_connect (at 140.97 85.09) (uuid c9f43ff2-3ebb-4fa2-bcc7-1f38211b7197))
  (no_connect (at 156.21 97.79) (uuid c9f43ff2-3ebb-4fa2-bcc7-1f38211b7199))
  (no_connect (at 151.13 97.79) (uuid c9f43ff2-3ebb-4fa2-bcc7-1f38211b719a))
  (no_connect (at 166.37 87.63) (uuid c9f43ff2-3ebb-4fa2-bcc7-1f38211b719b))
  (no_connect (at 166.37 85.09) (uuid c9f43ff2-3ebb-4fa2-bcc7-1f38211b719c))

  (wire (pts (xy 166.37 64.77) (xy 184.15 64.77))
    (stroke (width 0) (type default) (color 0 0 0 0))
    (uuid 0691fb25-54b1-4f0c-8028-c558b9d37200)
  )
  (wire (pts (xy 171.45 96.52) (xy 200.66 96.52))
    (stroke (width 0) (type default) (color 0 0 0 0))
    (uuid 0a57f313-b605-4f58-a118-629c0196d61c)
  )
  (wire (pts (xy 148.59 97.79) (xy 148.59 101.6))
    (stroke (width 0) (type default) (color 0 0 0 0))
    (uuid 14c2e091-c563-41a9-9be9-680efdc1c5e0)
  )
  (wire (pts (xy 186.69 67.31) (xy 186.69 62.23))
    (stroke (width 0) (type default) (color 0 0 0 0))
    (uuid 152327b5-7ea0-4e32-a069-e34cccdae37f)
  )
  (wire (pts (xy 168.91 26.67) (xy 171.45 26.67))
    (stroke (width 0) (type default) (color 0 0 0 0))
    (uuid 17ce7170-6266-416a-b214-0c6455194238)
  )
  (wire (pts (xy 199.39 74.93) (xy 215.9 74.93))
    (stroke (width 0) (type default) (color 0 0 0 0))
    (uuid 18fad583-1735-46a9-bf5a-f8b546d86d10)
  )
  (wire (pts (xy 71.12 115.57) (xy 71.12 113.03))
    (stroke (width 0) (type default) (color 0 0 0 0))
    (uuid 19c067f6-99e3-423e-9877-dfbb508c47fb)
  )
  (wire (pts (xy 97.79 36.83) (xy 104.14 36.83))
    (stroke (width 0) (type default) (color 0 0 0 0))
    (uuid 19de9aa7-5639-41b9-ad45-8f52f4a4c651)
  )
  (wire (pts (xy 66.04 29.21) (xy 140.97 29.21))
    (stroke (width 0) (type default) (color 0 0 0 0))
    (uuid 1a497bd4-5788-4b84-b0bd-1fb1141f5944)
  )
  (wire (pts (xy 140.97 29.21) (xy 140.97 30.48))
    (stroke (width 0) (type default) (color 0 0 0 0))
    (uuid 1a728e58-2382-48d8-b6f9-75bb78018989)
  )
  (wire (pts (xy 130.81 62.23) (xy 140.97 62.23))
    (stroke (width 0) (type default) (color 0 0 0 0))
    (uuid 1b4201e5-9ece-48ea-b3c7-c70ad9466a1d)
  )
  (wire (pts (xy 97.79 44.45) (xy 101.6 44.45))
    (stroke (width 0) (type default) (color 0 0 0 0))
    (uuid 1b96d436-b9cf-4917-a466-e1de160125c8)
  )
  (wire (pts (xy 194.31 74.93) (xy 194.31 69.85))
    (stroke (width 0) (type default) (color 0 0 0 0))
    (uuid 230a6aff-b467-470b-a00a-f7f2adff64ed)
  )
  (wire (pts (xy 104.14 36.83) (xy 135.89 36.83))
    (stroke (width 0) (type default) (color 0 0 0 0))
    (uuid 23a63959-98e0-414f-b6b1-8b186ac4376c)
  )
  (wire (pts (xy 97.79 82.55) (xy 104.14 82.55))
    (stroke (width 0) (type default) (color 0 0 0 0))
    (uuid 2a5b8886-4c9c-4140-9672-1ae882d900ac)
  )
  (wire (pts (xy 166.37 82.55) (xy 199.39 82.55))
    (stroke (width 0) (type default) (color 0 0 0 0))
    (uuid 2f7013b5-124f-464d-9020-0e98bf4f5178)
  )
  (wire (pts (xy 71.12 68.58) (xy 71.12 66.04))
    (stroke (width 0) (type default) (color 0 0 0 0))
    (uuid 2fc9fb02-fff4-4cf4-b536-0140fafb44dd)
  )
  (wire (pts (xy 176.53 116.84) (xy 97.79 116.84))
    (stroke (width 0) (type default) (color 0 0 0 0))
    (uuid 32f0f747-04d3-4453-92f3-1803f7b3c8a1)
  )
  (wire (pts (xy 109.22 69.85) (xy 97.79 69.85))
    (stroke (width 0) (type default) (color 0 0 0 0))
    (uuid 34e133bf-a8e4-429e-818d-ebbec6b465b5)
  )
  (wire (pts (xy 111.76 66.04) (xy 97.79 66.04))
    (stroke (width 0) (type default) (color 0 0 0 0))
    (uuid 36fd1d08-b9bd-4bc9-9e4e-2d25c03c60ce)
  )
  (wire (pts (xy 68.58 82.55) (xy 73.66 82.55))
    (stroke (width 0) (type default) (color 0 0 0 0))
    (uuid 38bb407f-fa2a-4ef0-b3a3-485dca23ab56)
  )
  (wire (pts (xy 171.45 101.6) (xy 148.59 101.6))
    (stroke (width 0) (type default) (color 0 0 0 0))
    (uuid 38c1d6ca-9cd1-4bb5-a004-9743ce83891b)
  )
  (wire (pts (xy 97.79 90.17) (xy 101.6 90.17))
    (stroke (width 0) (type default) (color 0 0 0 0))
    (uuid 38cc2b50-83d5-422c-b818-cde794ec78d8)
  )
  (wire (pts (xy 151.13 44.45) (xy 153.67 44.45))
    (stroke (width 0) (type default) (color 0 0 0 0))
    (uuid 39ba343a-6dd1-4407-949d-cb9b59a68d47)
  )
  (wire (pts (xy 181.61 119.38) (xy 181.61 80.01))
    (stroke (width 0) (type default) (color 0 0 0 0))
    (uuid 3ca8b903-af48-4512-ba74-fa5e9e749dfb)
  )
  (wire (pts (xy 189.23 64.77) (xy 215.9 64.77))
    (stroke (width 0) (type default) (color 0 0 0 0))
    (uuid 3e7808d7-0b28-43e3-ba89-bbb8dea64a45)
  )
  (wire (pts (xy 71.12 113.03) (xy 73.66 113.03))
    (stroke (width 0) (type default) (color 0 0 0 0))
    (uuid 40e76835-7f5d-462b-994c-793ea29bad2a)
  )
  (wire (pts (xy 173.99 30.48) (xy 173.99 44.45))
    (stroke (width 0) (type default) (color 0 0 0 0))
    (uuid 44d3cc98-9126-468a-a2ae-658ed57bdc5f)
  )
  (wire (pts (xy 128.27 109.22) (xy 217.17 109.22))
    (stroke (width 0) (type default) (color 0 0 0 0))
    (uuid 46f6cc63-5a06-4a3c-8469-b58f9638c6b8)
  )
  (wire (pts (xy 215.9 54.61) (xy 166.37 54.61))
    (stroke (width 0) (type default) (color 0 0 0 0))
    (uuid 4a2b5cd4-5349-4db9-bad8-5838bfe646c9)
  )
  (wire (pts (xy 215.9 59.69) (xy 213.36 59.69))
    (stroke (width 0) (type default) (color 0 0 0 0))
    (uuid 4a583b03-7ba0-42d6-ac20-d9bd4ec5453d)
  )
  (wire (pts (xy 101.6 44.45) (xy 101.6 90.17))
    (stroke (width 0) (type default) (color 0 0 0 0))
    (uuid 4bee7378-5049-4543-86ff-ddfe2c27bfc0)
  )
  (wire (pts (xy 73.66 119.38) (xy 73.66 116.84))
    (stroke (width 0) (type default) (color 0 0 0 0))
    (uuid 4d1523a5-7266-4369-baeb-50109d8f2078)
  )
  (wire (pts (xy 173.99 44.45) (xy 173.99 90.17))
    (stroke (width 0) (type default) (color 0 0 0 0))
    (uuid 4e5a09e3-c606-4c3e-99bd-80d0f11b7bf0)
  )
  (wire (pts (xy 208.28 90.17) (xy 209.55 90.17))
    (stroke (width 0) (type default) (color 0 0 0 0))
    (uuid 584dfe15-a2b5-4778-9301-9786a6ad6250)
  )
  (wire (pts (xy 66.04 58.42) (xy 66.04 105.41))
    (stroke (width 0) (type default) (color 0 0 0 0))
    (uuid 597dbaff-cafd-428f-ae92-22cd642f4d22)
  )
  (wire (pts (xy 39.37 113.03) (xy 55.88 113.03))
    (stroke (width 0) (type default) (color 0 0 0 0))
    (uuid 59e94fce-3d3f-4b4f-84e5-3dc8c0adb331)
  )
  (wire (pts (xy 55.88 113.03) (xy 55.88 119.38))
    (stroke (width 0) (type default) (color 0 0 0 0))
    (uuid 5a64423c-425c-4d0c-bc7c-3894cec97639)
  )
  (wire (pts (xy 166.37 57.15) (xy 213.36 57.15))
    (stroke (width 0) (type default) (color 0 0 0 0))
    (uuid 5ad6ccc5-84ce-46a7-9cea-a44e8113c4d5)
  )
  (wire (pts (xy 39.37 66.04) (xy 55.88 66.04))
    (stroke (width 0) (type default) (color 0 0 0 0))
    (uuid 5b456f37-3e21-4894-bd0a-d7ad20585ad1)
  )
  (wire (pts (xy 71.12 66.04) (xy 73.66 66.04))
    (stroke (width 0) (type default) (color 0 0 0 0))
    (uuid 5b56a0d3-ae50-40d5-9ee3-5de1ce5025f8)
  )
  (wire (pts (xy 68.58 36.83) (xy 68.58 82.55))
    (stroke (width 0) (type default) (color 0 0 0 0))
    (uuid 5be0a0b8-8460-49d5-9b99-1e6d9d2e3e99)
  )
  (wire (pts (xy 179.07 62.23) (xy 179.07 113.03))
    (stroke (width 0) (type default) (color 0 0 0 0))
    (uuid 5d52ca86-5357-4779-8ff2-1adf7e4a8d7b)
  )
  (wire (pts (xy 97.79 86.36) (xy 106.68 86.36))
    (stroke (width 0) (type default) (color 0 0 0 0))
    (uuid 5e9ba25f-bbc3-45a1-8ebf-b3d48e7c1708)
  )
  (wire (pts (xy 39.37 68.58) (xy 71.12 68.58))
    (stroke (width 0) (type default) (color 0 0 0 0))
    (uuid 613e8a19-217d-4b06-afe8-6dda9969ed0c)
  )
  (wire (pts (xy 176.53 59.69) (xy 166.37 59.69))
    (stroke (width 0) (type default) (color 0 0 0 0))
    (uuid 63db8595-ef74-4bb6-9547-6e14f2051a07)
  )
  (wire (pts (xy 68.58 26.67) (xy 68.58 36.83))
    (stroke (width 0) (type default) (color 0 0 0 0))
    (uuid 6ad004b3-f5da-4203-8228-cc91f26d802a)
  )
  (wire (pts (xy 68.58 86.36) (xy 68.58 109.22))
    (stroke (width 0) (type default) (color 0 0 0 0))
    (uuid 6b2a591e-bc24-4341-825f-0bdd58e2c3fc)
  )
  (wire (pts (xy 101.6 44.45) (xy 151.13 44.45))
    (stroke (width 0) (type default) (color 0 0 0 0))
    (uuid 6cb0f7ad-9b4c-4cb1-90e4-a562d3936c8b)
  )
  (wire (pts (xy 130.81 62.23) (xy 130.81 106.68))
    (stroke (width 0) (type default) (color 0 0 0 0))
    (uuid 6f648629-acfb-453e-af26-190ccd79c98e)
  )
  (wire (pts (xy 66.04 29.21) (xy 66.04 58.42))
    (stroke (width 0) (type default) (color 0 0 0 0))
    (uuid 71ae266b-8ba6-4ceb-8b08-7e5f389c8311)
  )
  (wire (pts (xy 179.07 113.03) (xy 97.79 113.03))
    (stroke (width 0) (type default) (color 0 0 0 0))
    (uuid 75094625-8525-46ef-a9bc-8e64937b76a2)
  )
  (wire (pts (xy 68.58 36.83) (xy 73.66 36.83))
    (stroke (width 0) (type default) (color 0 0 0 0))
    (uuid 76e6cf9c-dacf-4672-b138-acf81504714b)
  )
  (wire (pts (xy 171.45 96.52) (xy 171.45 101.6))
    (stroke (width 0) (type default) (color 0 0 0 0))
    (uuid 79f69c60-24a5-46d7-abee-a4b0b0134dd1)
  )
  (wire (pts (xy 181.61 80.01) (xy 166.37 80.01))
    (stroke (width 0) (type default) (color 0 0 0 0))
    (uuid 7f4530d6-02fa-49ad-8e32-82386d3590a5)
  )
  (wire (pts (xy 55.88 119.38) (xy 73.66 119.38))
    (stroke (width 0) (type default) (color 0 0 0 0))
    (uuid 81df6153-3cca-4fb6-9fdf-e7d32d22928e)
  )
  (wire (pts (xy 106.68 54.61) (xy 140.97 54.61))
    (stroke (width 0) (type default) (color 0 0 0 0))
    (uuid 822b4408-03fc-4cb6-b054-81f128ef18c3)
  )
  (wire (pts (xy 71.12 40.64) (xy 71.12 62.23))
    (stroke (width 0) (type default) (color 0 0 0 0))
    (uuid 84a1be6f-2be5-48df-992e-5dd94347ea56)
  )
  (wire (pts (xy 153.67 44.45) (xy 153.67 46.99))
    (stroke (width 0) (type default) (color 0 0 0 0))
    (uuid 84b549f1-2f4d-449d-99d2-b0df9f6198a7)
  )
  (wire (pts (xy 130.81 106.68) (xy 217.17 106.68))
    (stroke (width 0) (type default) (color 0 0 0 0))
    (uuid 86cbedc8-0826-46dc-bedb-27e5fbb27041)
  )
  (wire (pts (xy 173.99 90.17) (xy 173.99 99.06))
    (stroke (width 0) (type default) (color 0 0 0 0))
    (uuid 8e3618d1-21e8-41e2-8f6d-e2a69cee67c3)
  )
  (wire (pts (xy 135.89 36.83) (xy 171.45 36.83))
    (stroke (width 0) (type default) (color 0 0 0 0))
    (uuid 901a7605-c924-43d9-a98d-931ac44d5ccb)
  )
  (wire (pts (xy 184.15 121.92) (xy 109.22 121.92))
    (stroke (width 0) (type default) (color 0 0 0 0))
    (uuid 928ebf01-f8a3-4ab9-94fa-685e9e169af1)
  )
  (wire (pts (xy 191.77 67.31) (xy 215.9 67.31))
    (stroke (width 0) (type default) (color 0 0 0 0))
    (uuid 940b5df6-e265-4605-8ea7-d3f7d1d9b70e)
  )
  (wire (pts (xy 66.04 58.42) (xy 73.66 58.42))
    (stroke (width 0) (type default) (color 0 0 0 0))
    (uuid 945c5ca6-83cb-47f9-9f95-244bb8739ef2)
  )
  (wire (pts (xy 173.99 90.17) (xy 200.66 90.17))
    (stroke (width 0) (type default) (color 0 0 0 0))
    (uuid 9488c4d7-5bd8-40b7-b3d8-7fa2165ec3d1)
  )
  (wire (pts (xy 181.61 119.38) (xy 111.76 119.38))
    (stroke (width 0) (type default) (color 0 0 0 0))
    (uuid 94b557c7-5e1c-40bf-af33-cc490610a23b)
  )
  (wire (pts (xy 199.39 82.55) (xy 199.39 74.93))
    (stroke (width 0) (type default) (color 0 0 0 0))
    (uuid 9718cd14-987d-4202-bee8-1d97d42e9708)
  )
  (wire (pts (xy 71.12 62.23) (xy 73.66 62.23))
    (stroke (width 0) (type default) (color 0 0 0 0))
    (uuid 9799fe19-8864-47b6-9ad9-f89c8dfe065e)
  )
  (wire (pts (xy 55.88 66.04) (xy 55.88 72.39))
    (stroke (width 0) (type default) (color 0 0 0 0))
    (uuid 988f66c6-ca5d-448e-9f9b-b1a188306a0d)
  )
  (wire (pts (xy 196.85 77.47) (xy 196.85 72.39))
    (stroke (width 0) (type default) (color 0 0 0 0))
    (uuid 98b4f046-6768-4ae2-81aa-dbcfff0dac71)
  )
  (wire (pts (xy 97.79 40.64) (xy 106.68 40.64))
    (stroke (width 0) (type default) (color 0 0 0 0))
    (uuid 9a16e515-55c0-40a9-8df7-da99512d0dcf)
  )
  (wire (pts (xy 68.58 26.67) (xy 140.97 26.67))
    (stroke (width 0) (type default) (color 0 0 0 0))
    (uuid 9a8dc270-0acc-4550-a6de-1d364de96dbe)
  )
  (wire (pts (xy 166.37 67.31) (xy 186.69 67.31))
    (stroke (width 0) (type default) (color 0 0 0 0))
    (uuid a14f3eb5-2920-4ea2-9764-3de25cc5229c)
  )
  (wire (pts (xy 55.88 72.39) (xy 73.66 72.39))
    (stroke (width 0) (type default) (color 0 0 0 0))
    (uuid a255c6bd-07db-462a-b5ee-8a5b37be263a)
  )
  (wire (pts (xy 73.66 86.36) (xy 68.58 86.36))
    (stroke (width 0) (type default) (color 0 0 0 0))
    (uuid a37de429-c282-4375-bebf-12de157ff3e0)
  )
  (wire (pts (xy 168.91 30.48) (xy 173.99 30.48))
    (stroke (width 0) (type default) (color 0 0 0 0))
    (uuid a403be73-1290-40cd-a2c7-5e616564442a)
  )
  (wire (pts (xy 208.28 96.52) (xy 209.55 96.52))
    (stroke (width 0) (type default) (color 0 0 0 0))
    (uuid a45c20b2-84ad-45fe-b203-97a566746fb2)
  )
  (wire (pts (xy 151.13 44.45) (xy 151.13 46.99))
    (stroke (width 0) (type default) (color 0 0 0 0))
    (uuid a834b6a5-80b0-43b2-a3c1-2ff1be743fdf)
  )
  (wire (pts (xy 39.37 115.57) (xy 71.12 115.57))
    (stroke (width 0) (type default) (color 0 0 0 0))
    (uuid abfd32c3-9f6f-4b51-b7c5-e8fb033857e6)
  )
  (wire (pts (xy 171.45 26.67) (xy 171.45 36.83))
    (stroke (width 0) (type default) (color 0 0 0 0))
    (uuid adfa893b-0222-4693-8f0e-fd27f465444a)
  )
  (wire (pts (xy 191.77 72.39) (xy 191.77 67.31))
    (stroke (width 0) (type default) (color 0 0 0 0))
    (uuid ae438cc4-aaf5-4315-9e82-dd6177f6cc28)
  )
  (wire (pts (xy 38.1 29.21) (xy 66.04 29.21))
    (stroke (width 0) (type default) (color 0 0 0 0))
    (uuid af6f87fb-4147-4781-9daa-a909dd70c621)
  )
  (wire (pts (xy 135.89 36.83) (xy 135.89 77.47))
    (stroke (width 0) (type default) (color 0 0 0 0))
    (uuid af944028-82bd-4d69-a12f-80a3a694f708)
  )
  (wire (pts (xy 106.68 57.15) (xy 140.97 57.15))
    (stroke (width 0) (type default) (color 0 0 0 0))
    (uuid afcb7849-5c21-4433-a024-2715bdb5d373)
  )
  (wire (pts (xy 106.68 86.36) (xy 106.68 57.15))
    (stroke (width 0) (type default) (color 0 0 0 0))
    (uuid b32b28a9-8e30-4676-8cc4-671c48fb5cd4)
  )
  (wire (pts (xy 166.37 69.85) (xy 189.23 69.85))
    (stroke (width 0) (type default) (color 0 0 0 0))
    (uuid b33a62da-d7eb-4459-a00e-12c0f5e4b1d9)
  )
  (wire (pts (xy 133.35 64.77) (xy 140.97 64.77))
    (stroke (width 0) (type default) (color 0 0 0 0))
    (uuid b51b2af3-a226-4188-b37f-9c5a7fe015ac)
  )
  (wire (pts (xy 128.27 59.69) (xy 128.27 109.22))
    (stroke (width 0) (type default) (color 0 0 0 0))
    (uuid b537d897-d4d7-4998-8d70-e297c922184b)
  )
  (wire (pts (xy 217.17 99.06) (xy 173.99 99.06))
    (stroke (width 0) (type default) (color 0 0 0 0))
    (uuid b65a4816-b530-4ba6-81a8-a3c0d3454b2e)
  )
  (wire (pts (xy 166.37 74.93) (xy 194.31 74.93))
    (stroke (width 0) (type default) (color 0 0 0 0))
    (uuid b92a4e5c-6163-4854-b3c2-fdfb04b828ba)
  )
  (wire (pts (xy 104.14 36.83) (xy 104.14 82.55))
    (stroke (width 0) (type default) (color 0 0 0 0))
    (uuid baa1ac81-96bb-4652-ba3f-4806ffa4bb39)
  )
  (wire (pts (xy 38.1 26.67) (xy 68.58 26.67))
    (stroke (width 0) (type default) (color 0 0 0 0))
    (uuid bca5e845-ec45-4581-8799-232b7bcdb1f1)
  )
  (wire (pts (xy 166.37 62.23) (xy 179.07 62.23))
    (stroke (width 0) (type default) (color 0 0 0 0))
    (uuid bed1afee-f25a-48fb-a27f-3a8515d23e2c)
  )
  (wire (pts (xy 73.66 40.64) (xy 71.12 40.64))
    (stroke (width 0) (type default) (color 0 0 0 0))
    (uuid c0c2413c-66b2-432b-9ed7-562aa04b000d)
  )
  (wire (pts (xy 73.66 72.39) (xy 73.66 69.85))
    (stroke (width 0) (type default) (color 0 0 0 0))
    (uuid c333fdcd-31cb-4d4b-a831-5fa40013f84b)
  )
  (wire (pts (xy 166.37 72.39) (xy 191.77 72.39))
    (stroke (width 0) (type default) (color 0 0 0 0))
    (uuid c47d3f8f-b6b1-411a-8195-b43ed02cc409)
  )
  (wire (pts (xy 111.76 119.38) (xy 111.76 66.04))
    (stroke (width 0) (type default) (color 0 0 0 0))
    (uuid c580eb25-a6bc-4579-ae60-834224d916c5)
  )
  (wire (pts (xy 209.55 90.17) (xy 209.55 96.52))
    (stroke (width 0) (type default) (color 0 0 0 0))
    (uuid c73b4e6b-adb5-46bd-8ea1-060aa376cd76)
  )
  (wire (pts (xy 106.68 54.61) (xy 106.68 40.64))
    (stroke (width 0) (type default) (color 0 0 0 0))
    (uuid c7dd3c70-d906-43da-b387-e67c0a07b32a)
  )
  (wire (pts (xy 109.22 121.92) (xy 109.22 69.85))
    (stroke (width 0) (type default) (color 0 0 0 0))
    (uuid c991c12f-906c-48ce-8863-b44f072e8d64)
  )
  (wire (pts (xy 194.31 69.85) (xy 215.9 69.85))
    (stroke (width 0) (type default) (color 0 0 0 0))
    (uuid ccdea2ad-22d4-46cc-995c-179fd3206a84)
  )
  (wire (pts (xy 133.35 104.14) (xy 217.17 104.14))
    (stroke (width 0) (type default) (color 0 0 0 0))
    (uuid d0f8e58a-2b49-4baf-8127-0058f2c3a43a)
  )
  (wire (pts (xy 140.97 77.47) (xy 135.89 77.47))
    (stroke (width 0) (type default) (color 0 0 0 0))
    (uuid d3843bc1-fa05-40b1-a27e-2c756cefcbb2)
  )
  (wire (pts (xy 184.15 64.77) (xy 184.15 121.92))
    (stroke (width 0) (type default) (color 0 0 0 0))
    (uuid da3a7e4e-22bc-4bf3-99b2-9f880079c6d3)
  )
  (wire (pts (xy 73.66 105.41) (xy 66.04 105.41))
    (stroke (width 0) (type default) (color 0 0 0 0))
    (uuid dac20342-c60d-4060-b72e-fea56afb87e1)
  )
  (wire (pts (xy 128.27 59.69) (xy 140.97 59.69))
    (stroke (width 0) (type default) (color 0 0 0 0))
    (uuid df90452d-3f51-4341-a0ac-58fd7007ffd1)
  )
  (wire (pts (xy 171.45 36.83) (xy 171.45 96.52))
    (stroke (width 0) (type default) (color 0 0 0 0))
    (uuid e1bf0f52-5af9-4f53-a58d-a1f10edcf4c9)
  )
  (wire (pts (xy 153.67 44.45) (xy 173.99 44.45))
    (stroke (width 0) (type default) (color 0 0 0 0))
    (uuid e3e9dfb2-dadd-45dd-b883-c06aabf37a6b)
  )
  (wire (pts (xy 196.85 72.39) (xy 215.9 72.39))
    (stroke (width 0) (type default) (color 0 0 0 0))
    (uuid e47d44ad-fcfb-4d88-8a02-69420c2ec781)
  )
  (wire (pts (xy 209.55 96.52) (xy 217.17 96.52))
    (stroke (width 0) (type default) (color 0 0 0 0))
    (uuid e9e9ffef-0c3f-4b48-8e41-1a2912aadd68)
  )
  (wire (pts (xy 166.37 77.47) (xy 196.85 77.47))
    (stroke (width 0) (type default) (color 0 0 0 0))
    (uuid ec410b8f-08d9-40ba-9e39-d4f9e56dfad0)
  )
  (wire (pts (xy 189.23 69.85) (xy 189.23 64.77))
    (stroke (width 0) (type default) (color 0 0 0 0))
    (uuid edba147b-ad48-4087-95c9-b431acfd970c)
  )
  (wire (pts (xy 68.58 109.22) (xy 73.66 109.22))
    (stroke (width 0) (type default) (color 0 0 0 0))
    (uuid efc8ed79-01e7-4523-b368-da85cb0195d3)
  )
  (wire (pts (xy 186.69 62.23) (xy 215.9 62.23))
    (stroke (width 0) (type default) (color 0 0 0 0))
    (uuid efeee68b-8205-4932-9d4e-a4f384819066)
  )
  (wire (pts (xy 133.35 64.77) (xy 133.35 104.14))
    (stroke (width 0) (type default) (color 0 0 0 0))
    (uuid f0673ff4-f327-429e-aff1-37c2f27495eb)
  )
  (wire (pts (xy 215.9 57.15) (xy 215.9 54.61))
    (stroke (width 0) (type default) (color 0 0 0 0))
    (uuid f4da6fcf-f5f2-4a6e-97c7-c177e7741b60)
  )
  (wire (pts (xy 213.36 59.69) (xy 213.36 57.15))
    (stroke (width 0) (type default) (color 0 0 0 0))
    (uuid fc2f586a-2668-45c8-8ef6-34a46f242d54)
  )
  (wire (pts (xy 176.53 59.69) (xy 176.53 116.84))
    (stroke (width 0) (type default) (color 0 0 0 0))
    (uuid fe7969f1-0b25-49f3-ac4b-ece64c9eb8a8)
  )

  (text "Right motor" (at 15.24 115.57 0)
    (effects (font (size 1.27 1.27)) (justify left bottom))
    (uuid 8f4966ab-91bc-4905-aa7b-22b57538e203)
  )
  (text "Power" (at 13.97 29.21 0)
    (effects (font (size 1.27 1.27)) (justify left bottom))
    (uuid b89e0540-fa3e-400f-8753-e513f1c79df2)
  )
  (text "Left motor" (at 15.24 68.58 0)
    (effects (font (size 1.27 1.27)) (justify left bottom))
    (uuid ee4970b1-f439-4c11-9a72-4282be4dd4d3)
  )

  (symbol (lib_id "Connector:Conn_01x03_Female") (at 222.25 106.68 0) (unit 1)
    (in_bom yes) (on_board yes) (fields_autoplaced)
    (uuid 03781621-2eb9-47e1-a696-90416a8c28cb)
    (property "Reference" "J6" (id 0) (at 223.52 105.4099 0)
      (effects (font (size 1.27 1.27)) (justify left))
    )
    (property "Value" "Conn_01x03_Female" (id 1) (at 223.52 107.9499 0)
      (effects (font (size 1.27 1.27)) (justify left))
    )
    (property "Footprint" "libs_olle:conn_terminal_3" (id 2) (at 222.25 106.68 0)
      (effects (font (size 1.27 1.27)) hide)
    )
    (property "Datasheet" "~" (id 3) (at 222.25 106.68 0)
      (effects (font (size 1.27 1.27)) hide)
    )
    (pin "1" (uuid 8d84a125-fb8f-49f6-a32e-7e9a97186286))
    (pin "2" (uuid b77243c4-3c0c-475f-a872-da5f7f5a68de))
    (pin "3" (uuid 8b2a862b-e83d-4d28-9e34-0a4a4eda05d6))
  )

  (symbol (lib_id "libs_olle:drv8871_breakout") (at 95.25 101.6 180) (unit 1)
    (in_bom yes) (on_board yes) (fields_autoplaced)
    (uuid 31a735fe-f5df-4566-9bf4-a3aa7ce5f3b3)
    (property "Reference" "U4" (id 0) (at 85.725 96.52 0))
    (property "Value" "drv8871_breakout" (id 1) (at 85.725 99.06 0))
    (property "Footprint" "libs_olle:drv8871_breakout" (id 2) (at 95.25 101.6 0)
      (effects (font (size 1.27 1.27)) hide)
    )
    (property "Datasheet" "" (id 3) (at 95.25 101.6 0)
      (effects (font (size 1.27 1.27)) hide)
    )
    (pin "1" (uuid 7559ca32-bdb4-4c20-ab83-dfad22f230f6))
    (pin "2" (uuid b5e8f791-5a0e-4d78-94ba-de626b54ad45))
    (pin "5" (uuid b7ddcaea-46bb-4980-8803-c5443779c3fb))
    (pin "6" (uuid c239ce2d-e69c-47ec-97cd-b8d959ed9bbf))
    (pin "7" (uuid 910c4426-6524-4a6a-87cb-281a0764673a))
    (pin "8" (uuid 5392c23f-c6db-4250-a4fc-44ca9044f217))
  )

  (symbol (lib_id "libs_olle:ACS712_breakout") (at 76.2 46.99 0) (unit 1)
    (in_bom yes) (on_board yes) (fields_autoplaced)
    (uuid 329faca4-75f3-44ea-9a06-3778ab62cd12)
    (property "Reference" "U1" (id 0) (at 85.725 29.21 0))
    (property "Value" "ACS712_breakout" (id 1) (at 85.725 31.75 0))
    (property "Footprint" "libs_olle:ACS712_breakout" (id 2) (at 76.2 46.99 0)
      (effects (font (size 1.27 1.27)) hide)
    )
    (property "Datasheet" "" (id 3) (at 76.2 46.99 0)
      (effects (font (size 1.27 1.27)) hide)
    )
    (pin "1" (uuid 15f1d02d-7cbe-4e9b-a03e-9b5e143cf46b))
    (pin "2" (uuid 33ad7f9e-77f1-4d45-b46a-f2d2181ef3cc))
    (pin "3" (uuid a0880e28-d676-4018-a581-37f348f7e9e8))
    (pin "4" (uuid 53a42958-0b92-49c2-8c15-5339c79a46ad))
    (pin "5" (uuid d447f5da-1c4e-4510-a634-8670f46ad7f8))
  )

  (symbol (lib_id "libs_olle:stepdown_generic") (at 143.51 33.02 0) (unit 1)
    (in_bom yes) (on_board yes) (fields_autoplaced)
    (uuid 4e18df06-1905-4e4d-8050-c26b4508094a)
    (property "Reference" "U5" (id 0) (at 154.94 19.05 0))
    (property "Value" "stepdown_generic" (id 1) (at 154.94 21.59 0))
    (property "Footprint" "libs_olle:stepdown_generic" (id 2) (at 143.51 33.02 0)
      (effects (font (size 1.27 1.27)) hide)
    )
    (property "Datasheet" "" (id 3) (at 143.51 33.02 0)
      (effects (font (size 1.27 1.27)) hide)
    )
    (pin "1" (uuid bcf1dea2-8031-44eb-8291-53297d13f481))
    (pin "2" (uuid 8aaa0544-301e-4e4a-b2bd-def070fc2ec4))
    (pin "3" (uuid ef112201-bf08-4dcb-a7b9-9cfed7d66283))
    (pin "4" (uuid 79f66547-4d72-41e2-b562-4e51c471d214))
  )

  (symbol (lib_id "MCU_Module:Arduino_Nano_v3.x") (at 153.67 72.39 180) (unit 1)
    (in_bom yes) (on_board yes)
    (uuid 70548220-c1fc-45ee-9b78-4ef7d8f360c6)
    (property "Reference" "A1" (id 0) (at 151.13 69.85 90)
      (effects (font (size 1.27 1.27)) (justify left))
    )
    (property "Value" "Arduino_Nano_v3.x" (id 1) (at 153.67 62.23 90)
      (effects (font (size 1.27 1.27)) (justify left))
    )
    (property "Footprint" "Module:Arduino_Nano" (id 2) (at 153.67 72.39 0)
      (effects (font (size 1.27 1.27) italic) hide)
    )
    (property "Datasheet" "http://www.mouser.com/pdfdocs/Gravitech_Arduino_Nano3_0.pdf" (id 3) (at 153.67 72.39 0)
      (effects (font (size 1.27 1.27)) hide)
    )
    (pin "1" (uuid 298f6a0d-8c99-436b-a5e5-6617a98b83c1))
    (pin "10" (uuid a16d4818-7920-4b98-848b-599a2d6a5b3d))
    (pin "11" (uuid 1ba5e3a5-cd88-41d6-a198-8d83ebdf5f6c))
    (pin "12" (uuid 25fc6723-c4bf-412f-9162-7b56ec906d8a))
    (pin "13" (uuid 8d28516a-fc82-441b-a955-01cd64857043))
    (pin "14" (uuid b19eb44f-da2d-4baa-b5f3-1492c8297949))
    (pin "15" (uuid 42f67bb6-8700-4e96-b454-748e164973b9))
    (pin "16" (uuid 23f368f6-5f15-4950-9593-8720e1d69e2b))
    (pin "17" (uuid 07199920-d946-43a1-95de-313feff992f5))
    (pin "18" (uuid d320354a-aeed-48d1-94ec-f16fc632eb53))
    (pin "19" (uuid a3e31f91-6935-4f78-8be6-1c7c5cd4069e))
    (pin "2" (uuid 6660d61f-0396-497f-9184-b3cc76c0616b))
    (pin "20" (uuid 3e167977-2ce9-48ce-9968-18d6e09c3962))
    (pin "21" (uuid b81ecbc5-ec90-4bd2-b4e4-d70e22897be1))
    (pin "22" (uuid e23f6ffd-f490-4f86-bd8c-da2a586ec849))
    (pin "23" (uuid a44df93b-0ced-4939-81c4-f842ea1018f8))
    (pin "24" (uuid 0e1e4cad-4625-4490-8024-ca226176605b))
    (pin "25" (uuid 7c62e99a-4ace-4c08-b434-d32e1c9ca13f))
    (pin "26" (uuid 8c4d23fb-4b4c-4ea6-8c31-ae47c494523b))
    (pin "27" (uuid b04226ef-fc17-4850-a62c-915661f058ef))
    (pin "28" (uuid bb56ce81-360a-4b54-a5a1-302659570758))
    (pin "29" (uuid 01fbfccd-cf86-4e7a-81bf-e6e48e53c119))
    (pin "3" (uuid 3b85b023-b1b9-45a7-8e4a-6cce2366690d))
    (pin "30" (uuid 94186ffe-5605-47b5-a9fa-522b63c4c29c))
    (pin "4" (uuid ac424ac7-8e87-47b9-8a96-c8bcc100bbc8))
    (pin "5" (uuid 0c3ce3e9-13ee-4346-94a7-6fb88b4177db))
    (pin "6" (uuid 918f2a85-180a-4200-90d2-ac01f6bf6f54))
    (pin "7" (uuid b6f5bfba-5d0f-4e07-81d5-ee08486d7db4))
    (pin "8" (uuid 5c8f6400-ecb1-4256-a5a4-f6b1625a533b))
    (pin "9" (uuid 8aa3f442-34d0-4e9c-8fe9-ca8df80cf6e7))
  )

  (symbol (lib_name "ACS712_breakout_1") (lib_id "libs_olle:ACS712_breakout") (at 76.2 92.71 0) (unit 1)
    (in_bom yes) (on_board yes) (fields_autoplaced)
    (uuid 8bd4c535-0273-4fb6-9064-115417977e7f)
    (property "Reference" "U2" (id 0) (at 85.725 74.93 0))
    (property "Value" "ACS712_breakout" (id 1) (at 85.725 77.47 0))
    (property "Footprint" "libs_olle:ACS712_breakout" (id 2) (at 76.2 92.71 0)
      (effects (font (size 1.27 1.27)) hide)
    )
    (property "Datasheet" "" (id 3) (at 76.2 92.71 0)
      (effects (font (size 1.27 1.27)) hide)
    )
    (pin "1" (uuid e22a97fe-a341-4dfa-a184-2f47f354273d))
    (pin "2" (uuid 5f38571f-2196-44d0-98ca-37aaf27f1578))
    (pin "3" (uuid 808ef12f-1e01-4534-9bcc-b0d5cb59f95b))
    (pin "4" (uuid d93ad3b8-6d20-4c60-92c9-0e5bcc7dd3d8))
    (pin "5" (uuid 185dde22-7889-45ca-a134-35ebaae04e55))
  )

  (symbol (lib_id "Connector:Conn_01x02_Female") (at 34.29 68.58 180) (unit 1)
    (in_bom yes) (on_board yes) (fields_autoplaced)
    (uuid 8e68e686-dd63-47b9-8ba0-5e35b9f5ad5e)
    (property "Reference" "J2" (id 0) (at 34.925 60.96 0))
    (property "Value" "Conn_01x02_Female" (id 1) (at 34.925 63.5 0))
    (property "Footprint" "libs_olle:conn_terminal_2" (id 2) (at 34.29 68.58 0)
      (effects (font (size 1.27 1.27)) hide)
    )
    (property "Datasheet" "~" (id 3) (at 34.29 68.58 0)
      (effects (font (size 1.27 1.27)) hide)
    )
    (pin "1" (uuid 24062ad7-8594-4669-ad5c-8b27e97f15b9))
    (pin "2" (uuid 03ae2e4b-9a9f-457a-ab8e-b83924f14aeb))
  )

  (symbol (lib_id "Connector:Conn_01x02_Female") (at 34.29 115.57 180) (unit 1)
    (in_bom yes) (on_board yes) (fields_autoplaced)
    (uuid 9db93822-229b-4ebc-a3de-a5156a02afe3)
    (property "Reference" "J3" (id 0) (at 34.925 107.95 0))
    (property "Value" "Conn_01x02_Female" (id 1) (at 34.925 110.49 0))
    (property "Footprint" "libs_olle:conn_terminal_2" (id 2) (at 34.29 115.57 0)
      (effects (font (size 1.27 1.27)) hide)
    )
    (property "Datasheet" "~" (id 3) (at 34.29 115.57 0)
      (effects (font (size 1.27 1.27)) hide)
    )
    (pin "1" (uuid 856a5660-252c-45da-8966-a88bb7fd1efd))
    (pin "2" (uuid 012b4442-1da7-418f-b341-61bce8d691b2))
  )

  (symbol (lib_id "libs_olle:drv8871_breakout") (at 95.25 54.61 180) (unit 1)
    (in_bom yes) (on_board yes) (fields_autoplaced)
    (uuid af989d19-79b0-4771-a109-9508b40e504a)
    (property "Reference" "U3" (id 0) (at 85.725 49.53 0))
    (property "Value" "drv8871_breakout" (id 1) (at 85.725 52.07 0))
    (property "Footprint" "libs_olle:drv8871_breakout" (id 2) (at 95.25 54.61 0)
      (effects (font (size 1.27 1.27)) hide)
    )
    (property "Datasheet" "" (id 3) (at 95.25 54.61 0)
      (effects (font (size 1.27 1.27)) hide)
    )
    (pin "1" (uuid 36b342bf-ca1a-4335-b235-1c83d475a84e))
    (pin "2" (uuid 377d9319-e99c-45ff-b876-d9acc776ab88))
    (pin "5" (uuid 7f0889ec-baee-4d2d-8b03-302cd7738942))
    (pin "6" (uuid acaf7a0d-43a4-43cf-8f71-5fe4a1222855))
    (pin "7" (uuid 2142a0cf-ee4e-4905-b189-c37786a687c4))
    (pin "8" (uuid aac3ac2b-00a0-499e-a391-3ebbbd8c11c2))
  )

  (symbol (lib_id "Connector:Conn_01x02_Male") (at 33.02 26.67 0) (unit 1)
    (in_bom yes) (on_board yes) (fields_autoplaced)
    (uuid bc12d3ac-8417-4911-ad27-b000cd07d51a)
    (property "Reference" "J1" (id 0) (at 33.655 21.59 0))
    (property "Value" "Conn_01x02_Male" (id 1) (at 33.655 24.13 0))
    (property "Footprint" "libs_olle:conn_terminal_2" (id 2) (at 33.02 26.67 0)
      (effects (font (size 1.27 1.27)) hide)
    )
    (property "Datasheet" "~" (id 3) (at 33.02 26.67 0)
      (effects (font (size 1.27 1.27)) hide)
    )
    (pin "1" (uuid a7242bf7-10ab-4fd7-b379-c6354d45c738))
    (pin "2" (uuid 6f1502d9-c031-47ee-bb00-ddb5ea57550b))
  )

  (symbol (lib_id "Device:R") (at 204.47 96.52 90) (unit 1)
    (in_bom yes) (on_board yes)
    (uuid bf4c4697-ab47-438d-bf44-da0b19503028)
    (property "Reference" "R1" (id 0) (at 204.47 96.52 90))
    (property "Value" "3.3k" (id 1) (at 204.47 93.98 90))
    (property "Footprint" "Resistor_SMD:R_1206_3216Metric" (id 2) (at 204.47 98.298 90)
      (effects (font (size 1.27 1.27)) hide)
    )
    (property "Datasheet" "~" (id 3) (at 204.47 96.52 0)
      (effects (font (size 1.27 1.27)) hide)
    )
    (pin "1" (uuid e08fdd3f-db53-49de-9f72-03f062ae6254))
    (pin "2" (uuid 51856cf3-1004-47ee-8741-631d227e638a))
  )

  (symbol (lib_id "Connector_Generic:Conn_01x04") (at 220.98 69.85 0) (unit 1)
    (in_bom yes) (on_board yes) (fields_autoplaced)
    (uuid e512e613-e53a-4b74-a623-691eb6aff77b)
    (property "Reference" "J5" (id 0) (at 223.52 69.8499 0)
      (effects (font (size 1.27 1.27)) (justify left))
    )
    (property "Value" "Conn_01x04" (id 1) (at 223.52 72.3899 0)
      (effects (font (size 1.27 1.27)) (justify left))
    )
    (property "Footprint" "libs_olle:conn_terminal_4" (id 2) (at 220.98 69.85 0)
      (effects (font (size 1.27 1.27)) hide)
    )
    (property "Datasheet" "~" (id 3) (at 220.98 69.85 0)
      (effects (font (size 1.27 1.27)) hide)
    )
    (pin "1" (uuid d3c650b9-3d84-4727-92f0-7b467401a1cd))
    (pin "2" (uuid fb2133ff-c4ed-4d93-90ff-0c4d9f4722a1))
    (pin "3" (uuid f2cec1e2-fdb6-4d30-aa98-faeaf617ddf7))
    (pin "4" (uuid 761a587e-6a6a-4b5c-a769-1278189062ad))
  )

  (symbol (lib_id "Device:R") (at 204.47 90.17 90) (unit 1)
    (in_bom yes) (on_board yes)
    (uuid ed541c26-b613-407b-ab55-f3811be4dc6b)
    (property "Reference" "R2" (id 0) (at 204.47 90.17 90))
    (property "Value" "3.3k" (id 1) (at 204.47 87.63 90))
    (property "Footprint" "Resistor_SMD:R_1206_3216Metric" (id 2) (at 204.47 91.948 90)
      (effects (font (size 1.27 1.27)) hide)
    )
    (property "Datasheet" "~" (id 3) (at 204.47 90.17 0)
      (effects (font (size 1.27 1.27)) hide)
    )
    (pin "1" (uuid c32c3c50-3231-4670-ad91-6bf8e394f17f))
    (pin "2" (uuid f14eb75d-6c7b-4ada-9e6e-33f135fff93c))
  )

  (symbol (lib_id "Connector:Conn_01x02_Female") (at 222.25 96.52 0) (unit 1)
    (in_bom yes) (on_board yes)
    (uuid f48f204c-9fce-433c-bf53-bab6f7b1304d)
    (property "Reference" "J7" (id 0) (at 223.52 96.5199 0)
      (effects (font (size 1.27 1.27)) (justify left))
    )
    (property "Value" "Conn_01x02_Female" (id 1) (at 223.52 99.0599 0)
      (effects (font (size 1.27 1.27)) (justify left))
    )
    (property "Footprint" "libs_olle:conn_terminal_2" (id 2) (at 234.95 92.71 0))
    (property "Datasheet" "~" (id 3) (at 222.25 96.52 0)
      (effects (font (size 1.27 1.27)) hide)
    )
    (pin "1" (uuid 56e708ff-4357-4696-aa0b-f23a4c711d46))
    (pin "2" (uuid 73dc1096-c760-4bb4-91ad-e8239eda2265))
  )

  (symbol (lib_id "Connector_Generic:Conn_01x04") (at 220.98 59.69 0) (unit 1)
    (in_bom yes) (on_board yes) (fields_autoplaced)
    (uuid f74a8449-f195-4ea4-922f-45035e048151)
    (property "Reference" "J4" (id 0) (at 223.52 59.6899 0)
      (effects (font (size 1.27 1.27)) (justify left))
    )
    (property "Value" "Conn_01x04" (id 1) (at 223.52 62.2299 0)
      (effects (font (size 1.27 1.27)) (justify left))
    )
    (property "Footprint" "libs_olle:conn_terminal_4" (id 2) (at 220.98 59.69 0)
      (effects (font (size 1.27 1.27)) hide)
    )
    (property "Datasheet" "~" (id 3) (at 220.98 59.69 0)
      (effects (font (size 1.27 1.27)) hide)
    )
    (pin "1" (uuid c1f854e6-ed61-4b01-bd54-39258349058d))
    (pin "2" (uuid ca0f5e51-6da9-445c-8a1c-9b57e3194064))
    (pin "3" (uuid f0e5375c-f031-4c14-9036-38873102bc34))
    (pin "4" (uuid 82f59a25-a3ac-4f23-8dae-cc932f25a617))
  )

  (sheet_instances
    (path "/" (page "1"))
  )

  (symbol_instances
    (path "/70548220-c1fc-45ee-9b78-4ef7d8f360c6"
      (reference "A1") (unit 1) (value "Arduino_Nano_v3.x") (footprint "Module:Arduino_Nano")
    )
    (path "/bc12d3ac-8417-4911-ad27-b000cd07d51a"
      (reference "J1") (unit 1) (value "Conn_01x02_Male") (footprint "libs_olle:conn_terminal_2")
    )
    (path "/8e68e686-dd63-47b9-8ba0-5e35b9f5ad5e"
      (reference "J2") (unit 1) (value "Conn_01x02_Female") (footprint "libs_olle:conn_terminal_2")
    )
    (path "/9db93822-229b-4ebc-a3de-a5156a02afe3"
      (reference "J3") (unit 1) (value "Conn_01x02_Female") (footprint "libs_olle:conn_terminal_2")
    )
    (path "/f74a8449-f195-4ea4-922f-45035e048151"
      (reference "J4") (unit 1) (value "Conn_01x04") (footprint "libs_olle:conn_terminal_4")
    )
    (path "/e512e613-e53a-4b74-a623-691eb6aff77b"
      (reference "J5") (unit 1) (value "Conn_01x04") (footprint "libs_olle:conn_terminal_4")
    )
    (path "/03781621-2eb9-47e1-a696-90416a8c28cb"
      (reference "J6") (unit 1) (value "Conn_01x03_Female") (footprint "libs_olle:conn_terminal_3")
    )
    (path "/f48f204c-9fce-433c-bf53-bab6f7b1304d"
      (reference "J7") (unit 1) (value "Conn_01x02_Female") (footprint "libs_olle:conn_terminal_2")
    )
    (path "/bf4c4697-ab47-438d-bf44-da0b19503028"
      (reference "R1") (unit 1) (value "3.3k") (footprint "Resistor_SMD:R_1206_3216Metric")
    )
    (path "/ed541c26-b613-407b-ab55-f3811be4dc6b"
      (reference "R2") (unit 1) (value "3.3k") (footprint "Resistor_SMD:R_1206_3216Metric")
    )
    (path "/329faca4-75f3-44ea-9a06-3778ab62cd12"
      (reference "U1") (unit 1) (value "ACS712_breakout") (footprint "libs_olle:ACS712_breakout")
    )
    (path "/8bd4c535-0273-4fb6-9064-115417977e7f"
      (reference "U2") (unit 1) (value "ACS712_breakout") (footprint "libs_olle:ACS712_breakout")
    )
    (path "/af989d19-79b0-4771-a109-9508b40e504a"
      (reference "U3") (unit 1) (value "drv8871_breakout") (footprint "libs_olle:drv8871_breakout")
    )
    (path "/31a735fe-f5df-4566-9bf4-a3aa7ce5f3b3"
      (reference "U4") (unit 1) (value "drv8871_breakout") (footprint "libs_olle:drv8871_breakout")
    )
    (path "/4e18df06-1905-4e4d-8050-c26b4508094a"
      (reference "U5") (unit 1) (value "stepdown_generic") (footprint "libs_olle:stepdown_generic")
    )
  )
)
